Blockchain on Twitter: A Sword of Damocles?
…
write.csv(blch, "blockchain.csv")

II.Word Frequency Blockchain  Sword of Damocles?

2.1 Text Analysis of Top Words (tokenize)

tidy_blch<- blch%>% unnest_tokens(word,text)

tidy_blch%>%  count(word, sort=TRUE)

## # A tibble: 3,162 x 2
##          word     n
##         <chr> <int>
##  1         rt   833
##  2        the   673
##  3      https   646
##  4       t.co   610
##  5 blockchain   514
##  6         to   384
##  7         of   346
##  8          a   259
##  9         is   256
## 10        and   225
## # ... with 3,152 more rows
…
2.2 Sentiment Analysis sentiment analysis of positive and negtive words please refer to NRC Emotion Lexicon about the classification

get_sentiments("afinn")

## # A tibble: 2,476 x 2
##          word score
##         <chr> <int>
##  1    abandon    -2
##  2  abandoned    -2
##  3   abandons    -2
##  4   abducted    -2
##  5  abduction    -2
##  6 abductions    -2
##  7      abhor    -3
##  8   abhorred    -3
##  9  abhorrent    -3
## 10     abhors    -3
## # ... with 2,466 more rows

get_sentiments("bing")

## # A tibble: 6,788 x 2
##           word sentiment
##          <chr>     <chr>
##  1     2-faced  negative
##  2     2-faces  negative
##  3          a+  positive
##  4    abnormal  negative
##  5     abolish  negative
##  6  abominable  negative
##  7  abominably  negative
##  8   abominate  negative
##  9 abomination  negative
## 10       abort  negative
## # ... with 6,778 more rows

get_sentiments("nrc")

## # A tibble: 13,901 x 2
##           word sentiment
##          <chr>     <chr>
##  1      abacus     trust
##  2     abandon      fear
##  3     abandon  negative
##  4     abandon   sadness
##  5   abandoned     anger
##  6   abandoned      fear
##  7   abandoned  negative
##  8   abandoned   sadness
##  9 abandonment     anger
## 10 abandonment      fear
## # ... with 13,891 more rows

nrcpos <- get_sentiments("nrc") %>% 
  filter(sentiment == "positive")

tidy_blch%>%
  inner_join(nrcpos) %>%
  count(word, sort = TRUE)

## Joining, by = "word"

## # A tibble: 203 x 2
##           word     n
##          <chr> <int>
##  1  technology    65
##  2       bonus    59
##  3        join    47
##  4 improvement    28
##  5       worth    25
##  6   community    24
##  7      create    23
##  8       learn    23
##  9    solution    16
## 10        real    15
## # ... with 193 more rows

nrcneg <- get_sentiments("nrc") %>% 
  filter(sentiment == "negative")

tidy_blch%>%
  inner_join(nrcneg) %>%
  count(word, sort = TRUE)

## Joining, by = "word"

## # A tibble: 55 x 2
##          word     n
##         <chr> <int>
##  1 revolution    13
##  2      crypt    11
##  3      quote    10
##  4    payment     9
##  5      verge     6
##  6      fraud     5
##  7    problem     5
##  8 regulatory     5
##  9  anonymous     3
## 10     crisis     3
## # ... with 45 more rows

nrcfear <- get_sentiments("nrc") %>% 
  filter(sentiment == "fear")

tidy_blch%>%
  inner_join(nrcfear) %>%
  count(word, sort = TRUE)

## Joining, by = "word"

## # A tibble: 33 x 2
##          word     n
##         <chr> <int>
##  1      watch    19
##  2 revolution    13
##  3   powerful    12
##  4      crypt    11
##  5     change     6
##  6      verge     6
##  7    auditor     5
##  8    problem     5
##  9 regulatory     5
## 10      giant     4
## # ... with 23 more rows

nrcjoy <- get_sentiments("nrc") %>% 
  filter(sentiment == "joy")

tidy_blch%>%
  inner_join(nrcjoy) %>%
  count(word, sort = TRUE)

## Joining, by = "word"

## # A tibble: 65 x 2
##           word     n
##          <chr> <int>
##  1       bonus    59
##  2 improvement    28
##  3      create    23
##  4       white    14
##  5       enjoy    12
##  6        good    12
##  7    powerful    12
##  8     success    11
##  9        glad     9
## 10       music     9
## # ... with 55 more rows

(fearlist <- tidy_blch%>%
  inner_join(nrcfear) %>%
  count(word, sort = TRUE))

## Joining, by = "word"

## # A tibble: 33 x 2
##          word     n
##         <chr> <int>
##  1      watch    19
##  2 revolution    13
##  3   powerful    12
##  4      crypt    11
##  5     change     6
##  6      verge     6
##  7    auditor     5
##  8    problem     5
##  9 regulatory     5
## 10      giant     4
## # ... with 23 more rows

(joylist <- tidy_blch%>%
  inner_join(nrcjoy) %>%
  count(word, sort = TRUE))

## Joining, by = "word"

## # A tibble: 65 x 2
##           word     n
##          <chr> <int>
##  1       bonus    59
##  2 improvement    28
##  3      create    23
##  4       white    14
##  5       enjoy    12
##  6        good    12
##  7    powerful    12
##  8     success    11
##  9        glad     9
## 10       music     9
## # ... with 55 more rows
…
The word improvement appeared over 30 times. This is also an important sentiment here. Some words like disaster, and caution may indicate something about peoples worry.

2.4 Sentiment analysis with bing

bingpos <- get_sentiments("bing") %>% 
  filter(sentiment == "positive")

(poslist <- tidy_blch%>%
  inner_join(bingpos) %>%
  count(word, sort = TRUE))

## Joining, by = "word"

## # A tibble: 135 x 2
##           word     n
##          <chr> <int>
##  1       bonus    59
##  2       smart    35
##  3 improvement    28
##  4       great    25
##  5       worth    25
##  6       thank    16
##  7 interesting    13
##  8        like    13
##  9       enjoy    12
## 10        good    12
## # ... with 125 more rows

bingneg <- get_sentiments("bing") %>% 
  filter(sentiment == "negative")

(neglist <- (tidy_blch%>%
  inner_join(bingneg)  %>%
  count(word, sort = TRUE)))

## Joining, by = "word"

## # A tibble: 52 x 2
##       word     n
##      <chr> <int>
##  1    dark    87
##  2    miss    35
##  3  buckle    10
##  4   rival    10
##  5   issue     8
##  6   fraud     5
##  7 problem     5
##  8    scam     5
##  9 threats     4
## 10  crisis     3
## # ... with 42 more rows
…
